------------------------------------------------------------------------
r9 | computerpunk | 2009-12-14 20:10:46 +0000 (Mon, 14 Dec 2009) | 1 line
Changed paths:
   A /tags/0.2.2 (from /trunk:8)

- Tagging.
------------------------------------------------------------------------
r8 | computerpunk | 2009-12-14 20:00:03 +0000 (Mon, 14 Dec 2009) | 1 line
Changed paths:
   M /trunk/WarBoard_TogglerTokenMachine.lua
   M /trunk/WarBoard_TogglerTokenMachine.mod

- Update to 1.3.3.
------------------------------------------------------------------------
