------------------------------------------------------------------------
r12 | computerpunk | 2009-12-14 20:08:23 +0000 (Mon, 14 Dec 2009) | 1 line
Changed paths:
   A /tags/0.2.2 (from /trunk:11)

- Tagging.
------------------------------------------------------------------------
r11 | computerpunk | 2009-12-14 19:58:13 +0000 (Mon, 14 Dec 2009) | 1 line
Changed paths:
   M /trunk/WarBoard_TogglerHealGrid.lua
   M /trunk/WarBoard_TogglerHealGrid.mod

- Update to 1.3.3.
------------------------------------------------------------------------
