<?xml version="1.0" encoding="UTF-8"?>
<ModuleFile xmlns:xsi="http://www.w3.org/2001/XMLSchema-instance">
	<UiMod name="WarBoard_TogglerAmethyst" version="0.2" date="30/7/2009" >
		<Author name="Computerpunk" email="teromario@yahoo.com" />
		<Description text="Amethyst Toggler module created with LibWBToggler." />
		<VersionSettings gameVersion="1.4.1" windowsVersion="1.0" savedVariablesVersion="1.0" />
		<Dependencies>
			<Dependency name="LibWBToggler" />
			<Dependency name="Amethyst" forceEnable="false" />
		</Dependencies>
		<Files>
			<File name="WarBoard_TogglerAmethyst.xml" />
			<File name="WarBoard_TogglerAmethyst.lua" />
		</Files>
		<OnInitialize>
			<CallFunction name="WarBoard_TogglerAmethyst.Initialize" />
		</OnInitialize>
		<WARInfo>
	<Categories>
		<Category name="SYSTEM" />
		<Category name="DEVELOPMENT" />
		<Category name="OTHER" />
	</Categories>
	<Careers>
		<Career name="BLACKGUARD" />
		<Career name="WITCH_ELF" />
		<Career name="DISCIPLE" />
		<Career name="SORCERER" />
		<Career name="IRON_BREAKER" />
		<Career name="SLAYER" />
		<Career name="RUNE_PRIEST" />
		<Career name="ENGINEER" />
		<Career name="BLACK_ORC" />
		<Career name="CHOPPA" />
		<Career name="SHAMAN" />
		<Career name="SQUIG_HERDER" />
		<Career name="WITCH_HUNTER" />
		<Career name="KNIGHT" />
		<Career name="BRIGHT_WIZARD" />
		<Career name="WARRIOR_PRIEST" />
		<Career name="CHOSEN" />
		<Career name= "MARAUDER" />
		<Career name="ZEALOT" />
		<Career name="MAGUS" />
		<Career name="SWORDMASTER" />
		<Career name="SHADOW_WARRIOR" />
		<Career name="WHITE_LION" />
		<Career name="ARCHMAGE" />
	</Careers>
		</WARInfo>
	</UiMod>
</ModuleFile>