------------------------------------------------------------------------
r13 | computerpunk | 2009-12-14 20:10:04 +0000 (Mon, 14 Dec 2009) | 1 line
Changed paths:
   A /tags/0.1.5 (from /trunk:12)

- Tagging.
------------------------------------------------------------------------
r12 | computerpunk | 2009-12-14 19:59:32 +0000 (Mon, 14 Dec 2009) | 1 line
Changed paths:
   M /trunk/WarBoard_TogglerSoR.lua
   M /trunk/WarBoard_TogglerSoR.mod

- Update to 1.3.3.
------------------------------------------------------------------------
